;###001 - THIS LINE CONTAINS VERSION INFORMATION. DO NOT REMOVE!!!

;Tag Name, Expression, Description, DerivedTag File Name

"ANDON\FINESSE\TEMPO\MIN_SEG_L1_ST01","ANDON\FINESSE\TEMPO\MIN_SEG_L1_ST01 = ((ANDON\FINESSE\TEMPO\MIN_PAR_L1_ST01*100)+ANDON\FINESSE\TEMPO\SEG_PAR_L1_ST01)/100","","DTE"
"TTESTE","TTESTE+2","","DTE"
